<?xml version="1.0" encoding="UTF-8" standalone="no"?>
<svg
   xmlns:dc="http://purl.org/dc/elements/1.1/"
   xmlns:cc="http://creativecommons.org/ns#"
   xmlns:rdf="http://www.w3.org/1999/02/22-rdf-syntax-ns#"
   xmlns:svg="http://www.w3.org/2000/svg"
   xmlns="http://www.w3.org/2000/svg"
   xmlns:sodipodi="http://sodipodi.sourceforge.net/DTD/sodipodi-0.dtd"
   xmlns:inkscape="http://www.inkscape.org/namespaces/inkscape"
   inkscape:version="0.92.3 (2405546, 2018-03-11)"
   sodipodi:docname="cup.svg"
   width="98.488197mm"
   height="98.488197mm"
   viewBox="0 0 98.488197 98.488197"
   version="1.1"
   id="svg8">
  <defs
     id="defs2">
    <marker
       style="overflow:visible"
       id="TriangleOutL"
       refX="0.0"
       refY="0.0"
       orient="auto"
       inkscape:stockid="TriangleOutL"
       inkscape:isstock="true">
      <path
         transform="scale(0.8)"
         style="fill-rule:evenodd;stroke:#000000;stroke-width:1pt;stroke-opacity:1;fill:#ffffff;fill-opacity:1"
         d="M 5.77,0.0 L -2.88,5.0 L -2.88,-5.0 L 5.77,0.0 z "
         id="path1298" />
    </marker>
    <marker
       style="overflow:visible;"
       id="Arrow1Lend"
       refX="0.0"
       refY="0.0"
       orient="auto"
       inkscape:stockid="Arrow1Lend"
       inkscape:isstock="true">
      <path
         transform="scale(0.8) rotate(180) translate(12.5,0)"
         style="fill-rule:evenodd;stroke:#000000;stroke-width:1pt;stroke-opacity:1;fill:#ffffff;fill-opacity:1"
         d="M 0.0,0.0 L 5.0,-5.0 L -12.5,0.0 L 5.0,5.0 L 0.0,0.0 z "
         id="path1159" />
    </marker>
  </defs>
  <sodipodi:namedview
     inkscape:pagecheckerboard="true"
     inkscape:window-maximized="1"
     inkscape:window-y="-8"
     inkscape:window-x="1988"
     inkscape:window-height="1177"
     inkscape:window-width="1844"
     showgrid="true"
     inkscape:document-rotation="0"
     inkscape:current-layer="layer1"
     inkscape:document-units="mm"
     inkscape:cy="219.81831"
     inkscape:cx="255.95695"
     inkscape:zoom="1.979899"
     inkscape:pageshadow="2"
     inkscape:pageopacity="0"
     borderopacity="1.0"
     bordercolor="#666666"
     pagecolor="#ffffff"
     id="base">
    <inkscape:grid
       type="xygrid"
       id="grid4559" />
  </sodipodi:namedview>
  <metadata
     id="metadata5">
    <rdf:RDF>
      <cc:Work
         rdf:about="">
        <dc:format>image/svg+xml</dc:format>
        <dc:type
           rdf:resource="http://purl.org/dc/dcmitype/StillImage" />
        <dc:title></dc:title>
      </cc:Work>
    </rdf:RDF>
  </metadata>
  <g
     inkscape:label="Layer 1"
     inkscape:groupmode="layer"
     id="layer1"
     transform="translate(-62.9624,-107.35158)">
    <path
       style="fill:none;stroke:#000000;stroke-width:11.33858282;stroke-linecap:butt;stroke-linejoin:miter;stroke-miterlimit:4;stroke-dasharray:none;stroke-opacity:1"
       d="M 216.55681 234.1934 C 207.17203 219.54357 200.00001 202.98306 200.00001 182.23888 C 200.00001 137.23888 294.99999 92.238878 294.99999 32.238841 "
       id="path4879"
       transform="matrix(0.26458333,0,0,0.26458333,62.9624,107.35158)" />
    <path
       style="fill:none;stroke:#000000;stroke-width:11.33858282;stroke-linecap:butt;stroke-linejoin:miter;stroke-miterlimit:4;stroke-dasharray:none;stroke-opacity:1"
       d="M 115.78538 271.54363 C 106.78183 284.24147 99.999998 297.10986 99.999998 312.23887 C 99.999998 332.23884 150 342.23887 180 342.23887 C 210 342.2389 260.00001 332.23888 260.00001 312.2389 C 260.00001 294.75474 250.94236 280.2898 239.86552 265.61812 "
       id="path4859"
       transform="matrix(0.26458333,0,0,0.26458333,62.9624,107.35158)" />
    <path
       style="fill:none;stroke:#000000;stroke-width:11.33858282;stroke-linecap:butt;stroke-linejoin:miter;stroke-miterlimit:4;stroke-dasharray:none;stroke-opacity:1"
       d="M 65.000001 32.238841 C 64.999997 92.238879 159.99999 137.23884 159.99999 182.23884 C 159.99999 203.38958 152.54409 220.19105 142.88889 235.05252 "
       id="path4563"
       transform="matrix(0.26458333,0,0,0.26458333,62.9624,107.35158)" />
    <path
       style="fill:none;stroke:#000000;stroke-width:3;stroke-linecap:butt;stroke-linejoin:miter;stroke-opacity:1;stroke-miterlimit:4;stroke-dasharray:none"
       d="m 141.01448,115.88144 c 0,-5.29166 -19.84375,-5.29166 -30.42708,-5.29166 -10.58333,0 -30.427083,0 -30.427083,5.29166 0,5.29167 18.520833,6.61459 30.427083,6.61459 11.90625,0 30.42708,-1.32292 30.42708,-6.61459 z"
       id="path4561-7"
       inkscape:connector-curvature="0"
       sodipodi:nodetypes="ccccc" />
    <path
       style="fill:none;stroke:#000000;stroke-width:3;stroke-linecap:butt;stroke-linejoin:miter;stroke-miterlimit:4;stroke-dasharray:none;stroke-opacity:1"
       d="m 135.72282,115.88145 c 0,-3.96874 -19.84375,-3.96875 -25.13542,-3.96875 -5.29167,0 -25.135417,1e-5 -25.135417,3.96875 0,3.96877 19.843747,5.29166 25.135417,5.29166 5.29167,0 25.13542,-1.32289 25.13542,-5.29166 z"
       id="path4561-7-2"
       inkscape:connector-curvature="0"
       sodipodi:nodetypes="ccccc" />
  </g>
  <path
     sodipodi:type="star"
     style="fill:none;fill-opacity:1;fill-rule:evenodd;stroke:#000000;stroke-width:3;stroke-miterlimit:4;stroke-dasharray:none;stroke-opacity:1"
     id="path4655"
     sodipodi:sides="5"
     sodipodi:cx="14.526047"
     sodipodi:cy="46.937597"
     sodipodi:r1="9.6309786"
     sodipodi:r2="4.8154893"
     sodipodi:arg1="1.2924967"
     sodipodi:arg2="1.9208152"
     inkscape:flatsided="false"
     inkscape:rounded="0"
     inkscape:randomized="0"
     d="m 17.17188,56.198012 -4.297139,-4.736909 -6.3382665,0.854455 3.1771788,-5.550607 -2.7712667,-5.764008 6.2607434,1.306444 4.625529,-4.416808 0.692174,6.358035 5.630001,3.034271 -5.832957,2.623037 z"
     inkscape:transform-center-x="-0.81760728"
     inkscape:transform-center-y="0.10669965" />
  <path
     sodipodi:type="star"
     style="fill:none;fill-opacity:1;fill-rule:evenodd;stroke:#000000;stroke-width:3;stroke-miterlimit:4;stroke-dasharray:none;stroke-opacity:1"
     id="path4655-0"
     sodipodi:sides="5"
     sodipodi:cx="50.244797"
     sodipodi:cy="76.041763"
     sodipodi:r1="9.6309795"
     sodipodi:r2="4.8154893"
     sodipodi:arg1="1.2924967"
     sodipodi:arg2="1.9208152"
     inkscape:flatsided="false"
     inkscape:rounded="0"
     inkscape:randomized="0"
     d="m 52.89063,85.302181 -4.297139,-4.73691 -6.338267,0.854456 3.177179,-5.550608 -2.771267,-5.764009 6.260744,1.306445 4.62553,-4.416809 0.692173,6.358036 5.630002,3.034271 -5.832958,2.623037 z"
     inkscape:transform-center-x="-0.0080454274"
     inkscape:transform-center-y="-0.91202185"
     transform="rotate(-19.89971,12.414057,119.93173)" />
  <path
     sodipodi:type="star"
     style="fill:none;fill-opacity:1;fill-rule:evenodd;stroke:#000000;stroke-width:3;stroke-miterlimit:4;stroke-dasharray:none;stroke-opacity:1"
     id="path4655-3"
     sodipodi:sides="5"
     sodipodi:cx="71.614418"
     sodipodi:cy="47.894871"
     sodipodi:r1="9.6309795"
     sodipodi:r2="4.8154893"
     sodipodi:arg1="1.2924967"
     sodipodi:arg2="1.9208152"
     inkscape:flatsided="false"
     inkscape:rounded="0"
     inkscape:randomized="0"
     d="m 74.260251,57.155288 -4.297139,-4.736909 -6.338267,0.854455 3.17718,-5.550608 -2.771268,-5.764009 6.260744,1.306445 4.62553,-4.416808 0.692173,6.358035 5.630002,3.034271 -5.832958,2.623037 z"
     inkscape:transform-center-x="0.54255198"
     inkscape:transform-center-y="0.38826765"
     transform="rotate(-45.55081,71.62578,38.258252)" />
  <path
     sodipodi:type="star"
     style="fill:none;fill-opacity:1;fill-rule:evenodd;stroke:#000000;stroke-width:3;stroke-miterlimit:4;stroke-dasharray:none;stroke-opacity:1"
     id="path4655-0-7-0"
     sodipodi:sides="5"
     sodipodi:cx="50.244797"
     sodipodi:cy="76.041763"
     sodipodi:r1="9.6309795"
     sodipodi:r2="4.8154893"
     sodipodi:arg1="1.2924967"
     sodipodi:arg2="1.9208152"
     inkscape:flatsided="false"
     inkscape:rounded="0"
     inkscape:randomized="0"
     d="m 52.89063,85.302181 -4.297139,-4.73691 -6.338267,0.854456 3.177179,-5.550608 -2.771267,-5.764009 6.260744,1.306445 4.62553,-4.416809 0.692173,6.358036 5.630002,3.034271 -5.832958,2.623037 z"
     inkscape:transform-center-x="-0.0080454274"
     inkscape:transform-center-y="-0.91202185"
     transform="rotate(-19.89971,26.48546,32.419336)" />
</svg>
